mywaves.vcd
$date
	Thu Jul 17 20:59:36 2025
$end
$version
	Questa Intel Starter FPGA Edition Version 2024.3
$end
$timescale
	1ps
$end
$scope module tb_vending_machine_rand $end
$var reg 1 ! clk $end
$var reg 1 " rst $end
$var reg 8 # coin_in [7:0] $end
$var reg 2 $ button_in [1:0] $end
$var reg 8 % change_out [7:0] $end
$var reg 2 & beverage_out [1:0] $end
$var reg 8 ' credit [7:0] $end
$var reg 2 ( state [1:0] $end
$scope module dut $end
$var wire 1 ) clk $end
$var wire 1 * rst $end
$var wire 1 + coin_in [7] $end
$var wire 1 , coin_in [6] $end
$var wire 1 - coin_in [5] $end
$var wire 1 . coin_in [4] $end
$var wire 1 / coin_in [3] $end
$var wire 1 0 coin_in [2] $end
$var wire 1 1 coin_in [1] $end
$var wire 1 2 coin_in [0] $end
$var wire 1 3 button_in [1] $end
$var wire 1 4 button_in [0] $end
$var reg 8 5 change_out [7:0] $end
$var reg 2 6 beverage_out [1:0] $end
$var reg 8 7 credit [7:0] $end
$var reg 2 8 state [1:0] $end
$var reg 8 9 credit_reg [7:0] $end
$var reg 8 : next_credit [7:0] $end
$var reg 2 ; state_reg [1:0] $end
$var reg 2 < next_state [1:0] $end
$var reg 8 = change_reg [7:0] $end
$var reg 8 > next_change_reg [7:0] $end
$var reg 2 ? beverage_reg [1:0] $end
$var reg 2 @ next_beverage_reg [1:0] $end
$var reg 2 A dispense_cnt [1:0] $end
$var reg 2 B change_cnt [1:0] $end
$var integer 32 C state_val $end
$var integer 32 D next_state_val $end
$scope function is_valid_coin $end
$var reg 1 E is_valid_coin $end
$var reg 8 F coin [7:0] $end
$upscope $end
$upscope $end
$upscope $end
$enddefinitions $end
#0
b0 !
b1 "
b0 #
b0 $
b0 %
b0 &
b0 '
b0 (
0)
1*
0+
0,
0-
0.
0/
00
01
02
03
04
b0 5
b0 6
b0 7
b0 8
b0 9
b0 :
b0 ;
b0 <
b0 =
b0 >
b0 ?
b0 @
b0 A
b0 B
bx C
bx D
b0 E
b0 F
b0 &
b0 %
0)
1*
03
04
0+
0,
0-
0.
0/
00
01
02
b0 ;
b0 9
b0 =
b0 ?
b0 A
b0 B
b0 7
b0 8
b0 (
b0 '
b0 @
b0 >
b0 :
b0 F
b0 E
#5000
b1 !
1)
#10000
b0 !
0)
#15000
b1 !
1)
#20000
b0 "
b0 !
0*
0)
#25000
b1 !
1)
#30000
b0 !
0)
#35000
b1 !
1)
#40000
b0 !
0)
#45000
b1 !
1)
#50000
b0 !
0)
#55000
b1 !
1)
#60000
b0 !
0)
#65000
b1 !
1)
#70000
b0 !
0)
#75000
b1 !
1)
#80000
b0 !
0)
#85000
b1 !
1)
#90000
b0 !
0)
#95000
b1 !
1)
#100000
b0 !
0)
#105000
b1 !
1)
#110000
b0 !
0)
#115000
b1 !
1)
#120000
b0 !
0)
#125000
b1 !
1)
#130000
b0 !
0)
#135000
b1 !
1)
#140000
b0 !
0)
#145000
b1 !
1)
#150000
b0 !
0)
#155000
b1 !
1)
#160000
b0 !
0)
#165000
b1 !
1)
#170000
b0 !
0)
#175000
b1 !
1)
#180000
b0 !
0)
#185000
b1 !
1)
#190000
b0 !
0)
#195000
b1 !
1)
#200000
b0 !
0)
#205000
b1 !
1)
#210000
b0 !
0)
#215000
b1 !
1)
#220000
b0 !
0)
#225000
b1 !
1)
#230000
b0 !
0)
#235000
b1 !
1)
#240000
b0 !
0)
#245000
b1 !
1)
#250000
b0 !
0)
#255000
b1 !
1)
#260000
b0 !
0)
#265000
b1 !
1)
#270000
b0 !
0)
#275000
b1 !
1)
#280000
b0 !
0)
#285000
b1 !
1)
#290000
b0 !
0)
#295000
b1 !
1)
#300000
b0 !
0)
#305000
b1 !
1)
#310000
b0 !
0)
#315000
b1 !
1)
#320000
b0 !
0)
#325000
b1 !
1)
#330000
b0 !
0)
#335000
b1 !
1)
#340000
b0 !
0)
#345000
b1 !
1)
#350000
b0 !
0)
#355000
b1 !
1)
#360000
b0 !
0)
#365000
b1 !
1)
#370000
b0 !
0)
#375000
b1 !
1)
#380000
b0 !
0)
#385000
b1 !
1)
#390000
b0 !
0)
#395000
b1 !
1)
#400000
b0 !
0)
#405000
b1 !
1)
#410000
b0 !
0)
#415000
b1 !
1)
#420000
b0 !
0)
#425000
b1 !
1)
#430000
b0 !
0)
#435000
b1 !
1)
#440000
b0 !
0)
#445000
b1 !
1)
#450000
b0 !
0)
#455000
b1 !
1)
#460000
b0 !
0)
#465000
b1 !
1)
#470000
b0 !
0)
#475000
b1 !
1)
#480000
b0 !
0)
#485000
b1 !
1)
#490000
b0 !
0)
#495000
b1 !
1)
#500000
b0 !
0)
#505000
b1 !
1)
#510000
b0 !
0)
#515000
b1 !
1)
#520000
b0 !
0)
#525000
b1 !
1)
#530000
b0 !
0)
#535000
b1 !
1)
#540000
b0 !
0)
#545000
b1 !
1)
#550000
b0 !
0)
#555000
b1 !
1)
#560000
b0 !
0)
#565000
b1 !
1)
#570000
b0 !
0)
#575000
b1 !
1)
#580000
b0 !
0)
#585000
b1 !
1)
#590000
b0 !
0)
#595000
b1 !
1)
#600000
b0 !
0)
#605000
b1 !
1)
#610000
b0 !
0)
#615000
b1 !
1)
#620000
b0 !
0)
#625000
b1 !
1)
#630000
b0 !
0)
#635000
b1 !
1)
#640000
b0 !
0)
#645000
b1 !
1)
#650000
b0 !
0)
#655000
b1 !
1)
#660000
b0 !
0)
#665000
b1 !
1)
#670000
b0 !
0)
#675000
b1 !
1)
#680000
b0 !
0)
#685000
b1 !
1)
#690000
b0 !
0)
#695000
b1 !
1)
#700000
b0 !
0)
#705000
b1 !
1)
#710000
b0 !
0)
#715000
b1 !
1)
#720000
b0 !
0)
#725000
b1 !
1)
#730000
b0 !
0)
#735000
b1 !
1)
#740000
b0 !
0)
#745000
b1 !
1)
#750000
b0 !
0)
#755000
b1 !
1)
#760000
b0 !
0)
#765000
b1 !
1)
#770000
b0 !
0)
#775000
b1 !
1)
#780000
b0 !
0)
#785000
b1 !
1)
#790000
b0 !
0)
#795000
b1 !
1)
#800000
b0 !
0)
#805000
b1 !
1)
#810000
b0 !
0)
#815000
b1 !
1)
#820000
b0 !
0)
#825000
b1 !
1)
#830000
b0 !
0)
#835000
b1 !
1)
#840000
b0 !
0)
#845000
b1 !
1)
#850000
b0 !
0)
#855000
b1 !
1)
#860000
b0 !
0)
#865000
b1 !
1)
#870000
b0 !
0)
#875000
b1 !
1)
#880000
b0 !
0)
#885000
b1 !
1)
#890000
b0 !
0)
#895000
b1 !
1)
#900000
b0 !
0)
#905000
b1 !
1)
#910000
b0 !
0)
#915000
b1 !
1)
#920000
b0 !
0)
#925000
b1 !
1)
#930000
b0 !
0)
#935000
b1 !
1)
#940000
b0 !
0)
#945000
b1 !
1)
#950000
b0 !
0)
#955000
b1 !
1)
#960000
b0 !
0)
#965000
b1 !
1)
#970000
b0 !
0)
#975000
b1 !
1)
#980000
b0 !
0)
#985000
b1 !
1)
#990000
b0 !
0)
#995000
b1 !
1)
#1000000
b0 !
0)
#1005000
b1 !
1)
#1010000
b0 !
0)
#1015000
b1 !
1)
#1020000
b0 !
0)
#1025000
b1 !
1)
#1030000
b0 !
0)
#1035000
b1 !
1)
#1040000
b0 !
0)
#1045000
b1 !
1)
#1050000
b0 !
0)
#1055000
b1 !
1)
#1060000
b0 !
0)
#1065000
b1 !
1)
#1070000
b0 !
0)
#1075000
b1 !
1)
#1080000
b0 !
0)
#1085000
b1 !
1)
#1090000
b0 !
0)
#1095000
b1 !
1)
#1100000
b0 !
0)
#1105000
b1 !
1)
#1110000
b0 !
0)
#1115000
b1 !
1)
#1120000
b0 !
0)
#1125000
b1 !
1)
#1130000
b0 !
0)
#1135000
b1 !
1)
#1140000
b0 !
0)
#1145000
b1 !
1)
#1150000
b0 !
0)
#1155000
b1 !
1)
#1160000
b0 !
0)
#1165000
b1 !
1)
#1170000
b0 !
0)
#1175000
b1 !
1)
#1180000
b0 !
0)
#1185000
b1 !
1)
#1190000
b0 !
0)
#1195000
b1 !
1)
#1200000
b0 !
0)
#1205000
b1 !
1)
#1210000
b0 !
0)
#1215000
b1 !
1)
#1220000
b0 !
0)
#1225000
b1 !
1)
#1230000
b0 !
0)
#1235000
b1 !
1)
#1240000
b0 !
0)
#1245000
b1 !
1)
#1250000
b0 !
0)
#1255000
b1 !
1)
#1260000
b0 !
0)
#1265000
b1 !
1)
#1270000
b0 !
0)
#1275000
b1 !
1)
#1280000
b0 !
0)
#1285000
b1 !
1)
#1290000
b0 !
0)
#1295000
b1 !
1)
#1300000
b0 !
0)
#1305000
b1 !
1)
#1310000
b0 !
0)
#1315000
b1 !
1)
#1320000
b0 !
0)
#1325000
b1 !
1)
#1330000
b0 !
0)
#1335000
b1 !
1)
#1340000
b0 !
0)
#1345000
b1 !
1)
#1350000
b0 !
0)
#1355000
b1 !
1)
#1360000
b0 !
0)
#1365000
b1 !
1)
#1370000
b0 !
0)
#1375000
b1 !
1)
#1380000
b0 !
0)
#1385000
b1 !
1)
#1390000
b0 !
0)
#1395000
b1 !
1)
#1400000
b0 !
0)
#1405000
b1 !
1)
#1410000
b0 !
0)
#1415000
b1 !
1)
#1420000
b0 !
0)
#1425000
b1 !
1)
#1430000
b0 !
0)
#1435000
b1 !
1)
#1440000
b0 !
0)
#1445000
b1 !
1)
#1450000
b0 !
0)
#1455000
b1 !
1)
#1460000
b0 !
0)
#1465000
b1 !
1)
#1470000
b0 !
0)
#1475000
b1 !
1)
#1480000
b0 !
0)
#1485000
b1 !
1)
#1490000
b0 !
0)
#1495000
b1 !
1)
#1500000
b0 !
0)
#1505000
b1 !
1)
#1510000
b0 !
0)
#1515000
b1 !
1)
#1520000
b0 !
0)
#1525000
b1 !
1)
#1530000
b0 !
0)
#1535000
b1 !
1)
#1540000
b0 !
0)
#1545000
b1 !
1)
#1550000
b0 !
0)
#1555000
b1 !
1)
#1560000
b0 !
0)
#1565000
b1 !
1)
#1570000
b0 !
0)
#1575000
b1 !
1)
#1580000
b0 !
0)
#1585000
b1 !
1)
#1590000
b0 !
0)
#1595000
b1 !
1)
#1600000
b0 !
0)
#1605000
b1 !
1)
#1610000
b0 !
0)
#1615000
b1 !
1)
#1620000
b0 !
0)
#1625000
b1 !
1)
#1630000
b0 !
0)
#1635000
b1 !
1)
#1640000
b0 !
0)
#1645000
b1 !
1)
#1650000
b0 !
0)
#1655000
b1 !
1)
#1660000
b0 !
0)
#1665000
b1 !
1)
#1670000
b0 !
0)
#1675000
b1 !
1)
#1680000
b0 !
0)
#1685000
b1 !
1)
#1690000
b0 !
0)
#1695000
b1 !
1)
#1700000
b0 !
0)
#1705000
b1 !
1)
#1710000
b0 !
0)
#1715000
b1 !
1)
#1720000
b0 !
0)
#1725000
b1 !
1)
#1730000
b0 !
0)
#1735000
b1 !
1)
#1740000
b0 !
0)
#1745000
b1 !
1)
#1750000
b0 !
0)
#1755000
b1 !
1)
#1760000
b0 !
0)
#1765000
b1 !
1)
#1770000
b0 !
0)
#1775000
b1 !
1)
#1780000
b0 !
0)
#1785000
b1 !
1)
#1790000
b0 !
0)
#1795000
b1 !
1)
#1800000
b0 !
0)
#1805000
b1 !
1)
#1810000
b0 !
0)
#1815000
b1 !
1)
#1820000
b0 !
0)
#1825000
b1 !
1)
#1830000
b0 !
0)
#1835000
b1 !
1)
#1840000
b0 !
0)
#1845000
b1 !
1)
#1850000
b0 !
0)
#1855000
b1 !
1)
#1860000
b0 !
0)
#1865000
b1 !
1)
#1870000
b0 !
0)
#1875000
b1 !
1)
#1880000
b0 !
0)
#1885000
b1 !
1)
#1890000
b0 !
0)
#1895000
b1 !
1)
#1900000
b0 !
0)
#1905000
b1 !
1)
#1910000
b0 !
0)
#1915000
b1 !
1)
#1920000
b0 !
0)
#1925000
b1 !
1)
#1930000
b0 !
0)
#1935000
b1 !
1)
#1940000
b0 !
0)
#1945000
b1 !
1)
#1950000
b0 !
0)
#1955000
b1 !
1)
#1960000
b0 !
0)
#1965000
b1 !
1)
#1970000
b0 !
0)
#1975000
b1 !
1)
#1980000
b0 !
0)
#1985000
b1 !
1)
#1990000
b0 !
0)
#1995000
b1 !
1)
#2000000
b0 !
0)
#2005000
b1 !
1)
#2010000
b0 !
0)
#2015000
b1 !
1)
