vending_machineVCD.vcd
$date
	Wed Jun 11 21:47:48 2025
$end
$version
	ModelSim Version 2020.1
$end
$timescale
	1ps
$end

$scope module tb_vending_machine_randddd $end
$var parameter 32 ! N $end
$var parameter 32 " M $end
$var parameter 32 # NUM_COINS $end
$var parameter 32 $ NUM_BUTTONS $end
$var reg 1 % clk $end
$var reg 1 & rst $end
$var reg 8 ' coin_in [7:0] $end
$var reg 2 ( button_in [1:0] $end
$var reg 8 ) change_out [7:0] $end
$var reg 2 * beverage_out [1:0] $end
$var wire 1 + credit $end
$var wire 1 , state $end
$upscope $end
$enddefinitions $end
#0
$dumpvars
0%
1&
b0 '
b0 (
b0 )
b0 *
b11 !
b10 "
b101 #
b10 $
0+
0,
$end
#5
1%
#10
0%
#15
1%
#20
0&
0%
b10 (
#25
1%
#30
0%
#35
1%
#40
0%
#45
1%
#50
0%
b1100100 '
b0 (
#55
1%
#60
0%
b11001000 '
#65
1%
#70
0%
#75
1%
#80
0%
b0 '
#85
1%
#90
0%
#95
1%
#100
0%
b10 (
#105
1%
#110
0%
b10100 '
b0 (
#115
1%
#120
0%
b0 '
#125
1%
#130
0%
#135
1%
#140
0%
b10 (
#145
1%
#150
0%
b0 (
#155
1%
#160
0%
b10 (
#165
1%
#170
0%
b110010 '
b0 (
#175
1%
#180
0%
b0 '
#185
1%
#190
0%
#195
1%
#200
0%
#205
1%
#210
0%
#215
1%
#220
0%
#225
1%
#230
0%
#235
1%
#240
0%
#245
1%
#250
0%
b10 (
#255
1%
#260
0%
b0 (
#265
1%
#270
0%
b10 (
#275
1%
#280
0%
b0 (
#285
1%
#290
0%
#295
1%
#300
0%
#305
1%
#310
0%
b11001000 '
#315
1%
#320
0%
b110010 '
#325
1%
#330
0%
b0 '
b1 (
#335
1%
#340
0%
b10 (
#345
1%
#350
0%
b0 (
#355
1%
#360
0%
b11001000 '
#365
1%
#370
0%
#375
1%
#380
0%
b10100 '
#385
1%
#390
0%
b0 '
b1 (
#395
1%
#400
0%
b1010 '
b0 (
#405
1%
#410
0%
b10100 '
#415
1%
#420
0%
b0 '
b10 (
#425
1%
#430
0%
#435
1%
#440
0%
b11001000 '
b0 (
#445
1%
#450
0%
b1010 '
#455
1%
#460
0%
b1100100 '
#465
1%
#470
0%
b0 '
#475
1%
#480
0%
#485
1%
#490
0%
#495
1%
#500
0%
#505
1%
#510
0%
#515
1%
#520
0%
#525
1%
#530
0%
#535
1%
#540
0%
#545
1%
#550
0%
b1100100 '
#555
1%
#560
0%
b11001000 '
#565
1%
#570
0%
b0 '
#575
1%
#580
0%
#585
1%
#590
0%
b1010 '
#595
1%
#600
0%
b110010 '
#605
1%
#610
0%
b0 '
b1 (
#615
1%
#620
0%
b110010 '
b0 (
#625
1%
#630
0%
b10100 '
#635
1%
#640
0%
b0 '
b1 (
#645
1%
#650
0%
#655
1%
#660
0%
b10 (
#665
1%
#670
0%
b0 (
#675
1%
#680
0%
#685
1%
#690
0%
b1 (
#695
1%
#700
0%
b1010 '
b0 (
#705
1%
#710
0%
#715
1%
#720
0%
b110010 '
#725
1%
#730
0%
b0 '
b1 (
#735
1%
#740
0%
#745
1%
#750
0%
b0 (
#755
1%
#760
0%
#765
1%
#770
0%
#775
1%
#780
0%
#785
1%
#790
0%
#795
1%
#800
0%
#805
1%
#810
0%
#815
1%
#820
0%
#825
1%
#830
0%
b10 (
#835
1%
#840
0%
b1 (
#845
1%
#850
0%
b1100100 '
b0 (
#855
1%
#860
0%
b0 '
#865
1%
#870
0%
b1100100 '
#875
1%
#880
0%
b11001000 '
#885
1%
#890
0%
b110010 '
#895
1%
#900
0%
b0 '
b1 (
#905
1%
#910
0%
b0 (
#915
1%
#920
0%
b11001000 '
#925
1%
#930
0%
b0 '
b10 (
#935
1%
#940
0%
b0 (
#945
1%
#950
0%
#955
1%
#960
0%
#965
1%
#970
0%
#975
1%
#980
0%
#985
1%
#990
0%
#995
1%
#1000
0%
#1005
1%
#1010
0%
#1015
1%
#1020
0%
b1 (
#1025
1%
#1030
0%
b0 (
#1035
1%
#1040
0%
#1045
1%
#1050
0%
b110010 '
#1055
1%
#1060
0%
b11001000 '
#1065
1%
#1070
0%
b0 '
#1075
1%
#1080
0%
b1 (
#1085
1%
#1090
0%
b0 (
#1095
1%
#1100
0%
b110010 '
#1105
1%
#1110
0%
b0 '
b10 (
#1115
1%
#1120
0%
b110010 '
b0 (
#1125
1%
#1130
0%
b0 '
#1135
1%
#1140
0%
#1145
1%
#1150
0%
b1 (
#1155
1%
#1160
0%
b0 (
#1165
1%
#1170
0%
#1175
1%
#1180
0%
b1 (
#1185
1%
#1190
0%
b0 (
#1195
1%
#1200
0%
b1100100 '
#1205
1%
#1210
0%
b0 '
